…
**Major/Minor** and **Vheissu** are the longest albums, both totaling up to a bit over 49 mins!

How about the length of each song?

``` r
df %>% 
  group_by(title) %>% 
  summarise(duration = as.duration(sum(lengthS))) %>% 
  arrange(desc(duration))
```

    ## # A tibble: 103 x 2
    ##    title                       duration            
    ##    <chr>                       <S4: Duration>      
    ##  1 Words In The Water          386s (~6.43 minutes)
    ##  2 Salt And Shadow             368s (~6.13 minutes)
    ##  3 Night Diving                362s (~6.03 minutes)
    ##  4 Daedalus                    360s (~6 minutes)   
    ##  5 Stand And Feel Your Worth   352s (~5.87 minutes)
    ##  6 Beggars                     324s (~5.4 minutes) 
    ##  7 A Song For Milly Michaelson 307s (~5.12 minutes)
    ##  8 The Weight                  300s (~5 minutes)   
    ##  9 The Earth Isn't Humming     298s (~4.97 minutes)
    ## 10 Kings Upon The Main         296s (~4.93 minutes)
    ## # ... with 93 more rows
…
``` r
df %>% 
  group_by(title) %>% 
  summarize(duration_song = seconds_to_period(sum(lengthS))) %>% 
  arrange(desc(duration_song))
```

    ## # A tibble: 103 x 2
    ##    title                            duration_song
    ##    <chr>                            <S4: Period> 
    ##  1 All The World Is Mad             3M 59S       
    ##  2 Black Honey                      59S          
    ##  3 Don't Tell And We Won't Ask      59S          
    ##  4 Paper Tigers                     59S          
    ##  5 Identity Crisis                  58S          
    ##  6 The Earth Isn't Humming          58S          
    ##  7 Yellow Belly                     58S          
    ##  8 The Next Day                     57S          
    ##  9 Between The End And Where We Lie 56S          
    ## 10 Kings Upon The Main              56S          
    ## # ... with 93 more rows
…
