…
In the past week or so, XKCD graphs of "The most comfortable place to live in ___" have been popping up on the \#rstats community on Twitter. Jumping onto this trend (though slightly late), I will do one for Japan, the country where I was born! Some great examples that I've seen so far include [Ma&euml;lle Salmon's](http://www.masalmon.eu/2017/11/16/wheretoliveus/) blog post for cities in the USA (which started this trend), as well as ones for [Spain](https://twitter.com/claudiaguirao/status/931615734521909248), [Germany](https://franziloew.github.io/xkcd_weather_cities_de/weatherdata.html), [Netherlands](http://rmhogervorst.nl/cleancode/blog/2017/11/20/xkcd-the-netherlands-weather.html), and even for all of [Europe](https://twitter.com/matamix/status/932192147062784000)! The original XKCD comic can be seen [here](https://xkcd.com/1916/).

Let's get started!

``` r
library(riem)

riem_stations(network = "JP__ASOS")
```

    ## # A tibble: 136 x 4
    ##       id             name      lon      lat
    ##    <chr>            <chr>    <dbl>    <dbl>
    ##  1  RORA AGUNI ISLAND     127.2403 26.59277
    ##  2  RJOE AKENO (JASDF)    136.6722 34.53333
    ##  3  RJSK AKITA AIRPORT    140.2167 39.61667
    ##  4  RJKA AMAMI AIRPORT    129.7125 28.43083
    ##  5  RJSA AOMORI AIRPORT   140.6886 40.73333
    ##  6  RJEC ASAHIKAWA AIRPOR 142.4475 43.67083
    ##  7  RJCA ASAHIKAWA (JASDF 142.3650 43.79444
    ##  8  RJFA ASHIYA (JASDF)   130.6517 33.88139
    ##  9  RJTA ATSUGI NAS (JMSD 139.4500 35.45472
    ## 10  RJAO CHICHIJIMA ISLAN 142.1900 27.09167
    ## # ... with 126 more rows
…
