…
``` r
match_df %>% 
  tibble::as_tibble() %>% 
  group_by(team_name) %>% 
  nest() %>% 
  head(1) %>% 
  unnest(cols = c(data))
```

    ## # A tibble: 22 x 23
    ## # Groups:   team_name [1]
    ##    team_name    id minute result     X     Y     xG firstname player h_a  
    ##    <fct>     <int>  <dbl> <fct>  <dbl> <dbl>  <dbl> <chr>     <chr>  <chr>
    ##  1 Liverpool     1      2 Block~ 0.875 0.347 0.0686 Mohamed   Salah  h    
    ##  2 Liverpool     2      3 GOAL   0.885 0.5   0.761  Mohamed   Salah  h    
    ##  3 Liverpool     3      6 Block~ 0.86  0.322 0.0608 Mohamed   Salah  h    
    ##  4 Liverpool     5     19 GOAL   0.946 0.542 0.419  Virgil    van D~ h    
    ##  5 Liverpool     6     24 Saved~ 0.734 0.374 0.0191 Jordan    Hende~ h    
    ##  6 Liverpool     7     28 Block~ 0.936 0.359 0.0941 Naby      Keita  h    
    ##  7 Liverpool     9     32 GOAL   0.87  0.392 0.0624 Mohamed   Salah  h    
    ##  8 Liverpool    10     39 Block~ 0.849 0.557 0.102  Sadio     Mané   h    
    ##  9 Liverpool    11     39 Block~ 0.862 0.56  0.0838 Sadio     Mané   h    
    ## 10 Liverpool    12     48 Saved~ 0.891 0.543 0.121  Georginio Wijna~ h    
    ## # ... with 12 more rows, and 13 more variables: player_id <dbl>,
    ## #   situation <chr>, season <dbl>, shotType <chr>, match_id <dbl>,
    ## #   h_team <chr>, a_team <chr>, date <chr>, player_assisted <chr>,
    ## #   lastAction <chr>, team_color <chr>, x <dbl>, y <dbl>
…
